**DIRAC
.WAVE FUNCTION
.ANALYZE
**GENERAL
.ACMOUT
**HAMILTONIAN
.ECP
**INTEGRALS
*READIN
.UNCONTRACT
**WAVE FUNCTION
.SCF
*SCF
.CLOSED SHELL
16 12
.OPEN SHELL
2
3/0,14
1/10,0
.KPSELE
7
-1  1 -2  2 -3  3 -4
 4  4  8  4  6  0  0
 0  0  0  0  0  6  8
 0  0  0  4  6  0  0
**ANALYZE
.MULPOP
*MULPOP
.VECPOP
1..oo
1..oo
**END OF
