**DIRAC
.ANALYZE
**WAVE FUNCTION
.SCF
*SCF
.CLOSED SHELL
22
**ANALYZE
.MULPOP
*MULPOP
.LABEL
ATOM
**MOLECULE
*SYMMETRY
.NOSYM
*CENTERS
.NUCLEUS
 O1 8.0
.NUCLEUS
 O2 8.0
*BASIS
.DEFAULT
dyall.2zp
**END OF

