**DIRAC
.PROPERTIES
**GENERAL
.ACMOIN
**WAVE FUNCTION
.SCF
*SCF
.CLOSED SHELL
22
**PROPERTIES
*EXPECTATION VALUE
.ORBANA
.OPERATOR
 'Kohn-Sham'
 FOCKMAT
 DFFCKT
 FACTOR
 1.0D0
**MOLECULE
*SYMMETRY
.NOSYM
*CENTERS
.NUCLEUS
 O1 8.0
.NUCLEUS
 O2 8.0
*BASIS
.DEFAULT
dyall.2zp
**END OF

