**DIRAC
.TITLE
 Spin-rotation constant
.WAVE FUNCTION
.PROPERTIES
**HAMILTONIAN
.URKBAL
**INTEGRALS
*READIN
.UNCONTRACT
**WAVE FUNCTIONS
.SCF
*SCF
.EVCCNV
1.0E-7
**PROPERTIES
.SPIN-R
.PRINT
4
*LINEAR RESPONSE
.THRESH
1.0D-7
*END OF
